<?xml version="1.0" encoding="UTF-8" standalone="no"?>
<svg 
   width="294pt"
   height="138pt"
   viewBox="0 0 294 138"
   version="1.2"
   id="svg171"
   xmlns:xlink="http://www.w3.org/1999/xlink"
   xmlns="http://www.w3.org/2000/svg"
   xmlns:svg="http://www.w3.org/2000/svg" content="%3Cmxfile%20host%3D%22app.diagrams.net%22%20modified%3D%222022-05-20T11%3A54%3A34.249Z%22%20agent%3D%225.0%20(X11%3B%20Linux%20x86_64)%20AppleWebKit%2F537.36%20(KHTML%2C%20like%20Gecko)%20Chrome%2F100.0.4896.127%20Safari%2F537.36%22%20etag%3D%22JSmJ5ZAmvc2a4hBbBJn1%22%20version%3D%2218.0.6%22%20type%3D%22google%22%3E%3Cdiagram%20id%3D%22lqsQKdeE-P0xhLa2H9n4%22%20name%3D%22Page-1%22%3E7ZjRbtowFIafhstVIYlDuKTQdZOGhEDV1t2Z%2BIRYMzEyDgl7%2BjmNQ5yYdmuVTiD1Bvn8Pj7Gn385TgbedFvcC7xL5pwAG7gOKQbebOC6o9FY%2FZbCsRKGjq%2BVjaBEa42wor%2BhTtRqRgnsW4mScybpri1GPE0hki0NC8HzdlrMWXvWHd6AJawizGz1OyUyqdQQOY3%2BBegmqWceOrpni%2BtkLewTTHhuSN7dwJsKzmXV2hZTYCW8mks17vMzvac%2FJiCV%2FzJgGZI886PDzzQLU%2BQtl%2Fli8UlXOWCW6QXfPqwGbsBUydu1UK1N2dIrkMcai%2BBZSqCs7KjuPKESVjsclb25MoLSErllKhqqZkwZm3LGxdNYL45jN4qUvpeC%2FwKjhwTrAAWn%2Bcy11X8UhITCkPRa74FvQYqjStG9Xr0R2nmojvNmG72x1hJjCwOtYe2czal0A1c1NN9XsHYt1tPFQ69kCYYwPks2iEJYx%2B9D1gttsv8VrGeBve8ZbBxGcN6y6xD5yOkHrH9pYH0L7OSrKjT%2FZp8QkygCBgJLBaZXSyMIiX%2BOfOiuvaCnwwJdGnlkkV9O5j2fwhA8cwqPxmunJ0sHlwZ2ZIG1qKoH9a5sxgyKSXmFUCggJbo5ixje72lFDgtpywbz9gYpjOL4owxuUB0%2B6synYFaYmbNjHRVUVsO8kavjR6OvGVYG5qgFCKq4gdCa6QECMc6YfGmf9zwTEbxAs76RYbEB%2BfcTGkjrsmW7xnDF6SJl2uIkCmBY0kP7knbOLHqOBadqbc0jLOhcDrp%2Bq1auR5mXqk4hv1PI7xaq0FiFnrx7Wvjb7RxetZ2HQ3SVdnY%2F7Pw%2Bdq7f%2Bq7Uz4E7Nv184zijq%2FG0f2GeRm7H08M3ejroFPK7hd7b0%2FY79jV5Ogyv84xGH35%2BrZ9V2HyOqtKbj3re3R8%3D%3C%2Fdiagram%3E%3C%2Fmxfile%3E">
  <defs
     id="defs70">
    <g
       id="g65">
      <symbol
         overflow="visible"
         id="glyph0-0">
        <path
           style="stroke:none;"
           d=""
           id="path2" />
      </symbol>
      <symbol
         overflow="visible"
         id="glyph0-1">
        <path
           style="stroke:none;"
           d="M 0.65625 0 L 0.65625 -6.4375 L 3.078125 -6.4375 C 3.566406 -6.4375 3.957031 -6.367188 4.25 -6.234375 C 4.550781 -6.109375 4.785156 -5.910156 4.953125 -5.640625 C 5.117188 -5.367188 5.203125 -5.082031 5.203125 -4.78125 C 5.203125 -4.507812 5.125 -4.25 4.96875 -4 C 4.820312 -3.757812 4.597656 -3.566406 4.296875 -3.421875 C 4.691406 -3.304688 4.992188 -3.109375 5.203125 -2.828125 C 5.410156 -2.554688 5.515625 -2.234375 5.515625 -1.859375 C 5.515625 -1.554688 5.445312 -1.273438 5.3125 -1.015625 C 5.1875 -0.765625 5.03125 -0.566406 4.84375 -0.421875 C 4.664062 -0.285156 4.429688 -0.179688 4.140625 -0.109375 C 3.859375 -0.0351562 3.515625 0 3.109375 0 Z M 1.515625 -3.734375 L 2.90625 -3.734375 C 3.28125 -3.734375 3.550781 -3.753906 3.71875 -3.796875 C 3.925781 -3.867188 4.082031 -3.976562 4.1875 -4.125 C 4.300781 -4.269531 4.359375 -4.457031 4.359375 -4.6875 C 4.359375 -4.894531 4.304688 -5.082031 4.203125 -5.25 C 4.109375 -5.414062 3.960938 -5.523438 3.765625 -5.578125 C 3.578125 -5.640625 3.253906 -5.671875 2.796875 -5.671875 L 1.515625 -5.671875 Z M 1.515625 -0.765625 L 3.109375 -0.765625 C 3.378906 -0.765625 3.570312 -0.773438 3.6875 -0.796875 C 3.882812 -0.828125 4.046875 -0.882812 4.171875 -0.96875 C 4.304688 -1.050781 4.414062 -1.171875 4.5 -1.328125 C 4.582031 -1.484375 4.625 -1.660156 4.625 -1.859375 C 4.625 -2.097656 4.5625 -2.304688 4.4375 -2.484375 C 4.320312 -2.660156 4.15625 -2.785156 3.9375 -2.859375 C 3.71875 -2.929688 3.40625 -2.96875 3 -2.96875 L 1.515625 -2.96875 Z M 1.515625 -0.765625 "
           id="path5" />
      </symbol>
      <symbol
         overflow="visible"
         id="glyph0-2">
        <path
           style="stroke:none;"
           d="M 4.90625 -6.4375 L 5.765625 -6.4375 L 5.765625 -2.71875 C 5.765625 -2.070312 5.691406 -1.554688 5.546875 -1.171875 C 5.398438 -0.796875 5.132812 -0.488281 4.75 -0.25 C 4.375 -0.0078125 3.875 0.109375 3.25 0.109375 C 2.644531 0.109375 2.148438 0.00390625 1.765625 -0.203125 C 1.390625 -0.410156 1.117188 -0.707031 0.953125 -1.09375 C 0.785156 -1.488281 0.703125 -2.03125 0.703125 -2.71875 L 0.703125 -6.4375 L 1.5625 -6.4375 L 1.5625 -2.71875 C 1.5625 -2.15625 1.613281 -1.742188 1.71875 -1.484375 C 1.820312 -1.222656 2 -1.019531 2.25 -0.875 C 2.5 -0.726562 2.804688 -0.65625 3.171875 -0.65625 C 3.796875 -0.65625 4.238281 -0.796875 4.5 -1.078125 C 4.769531 -1.367188 4.90625 -1.914062 4.90625 -2.71875 Z M 4.90625 -6.4375 "
           id="path8" />
      </symbol>
      <symbol
         overflow="visible"
         id="glyph0-3">
        <path
           style="stroke:none;"
           d="M 0.40625 -2.0625 L 1.203125 -2.140625 C 1.242188 -1.816406 1.332031 -1.550781 1.46875 -1.34375 C 1.613281 -1.132812 1.832031 -0.96875 2.125 -0.84375 C 2.414062 -0.71875 2.742188 -0.65625 3.109375 -0.65625 C 3.429688 -0.65625 3.71875 -0.703125 3.96875 -0.796875 C 4.21875 -0.890625 4.398438 -1.019531 4.515625 -1.1875 C 4.640625 -1.363281 4.703125 -1.550781 4.703125 -1.75 C 4.703125 -1.945312 4.644531 -2.117188 4.53125 -2.265625 C 4.414062 -2.421875 4.222656 -2.550781 3.953125 -2.65625 C 3.773438 -2.71875 3.390625 -2.820312 2.796875 -2.96875 C 2.210938 -3.113281 1.800781 -3.25 1.5625 -3.375 C 1.25 -3.53125 1.019531 -3.726562 0.875 -3.96875 C 0.726562 -4.207031 0.65625 -4.472656 0.65625 -4.765625 C 0.65625 -5.085938 0.742188 -5.390625 0.921875 -5.671875 C 1.109375 -5.960938 1.378906 -6.179688 1.734375 -6.328125 C 2.085938 -6.472656 2.476562 -6.546875 2.90625 -6.546875 C 3.382812 -6.546875 3.804688 -6.46875 4.171875 -6.3125 C 4.535156 -6.15625 4.816406 -5.925781 5.015625 -5.625 C 5.210938 -5.332031 5.316406 -5 5.328125 -4.625 L 4.515625 -4.5625 C 4.472656 -4.96875 4.320312 -5.273438 4.0625 -5.484375 C 3.8125 -5.691406 3.441406 -5.796875 2.953125 -5.796875 C 2.429688 -5.796875 2.050781 -5.695312 1.8125 -5.5 C 1.582031 -5.3125 1.46875 -5.085938 1.46875 -4.828125 C 1.46875 -4.597656 1.550781 -4.40625 1.71875 -4.25 C 1.882812 -4.101562 2.3125 -3.953125 3 -3.796875 C 3.695312 -3.640625 4.171875 -3.503906 4.421875 -3.390625 C 4.796875 -3.210938 5.070312 -2.988281 5.25 -2.71875 C 5.425781 -2.457031 5.515625 -2.15625 5.515625 -1.8125 C 5.515625 -1.46875 5.414062 -1.144531 5.21875 -0.84375 C 5.03125 -0.539062 4.75 -0.304688 4.375 -0.140625 C 4.007812 0.0234375 3.597656 0.109375 3.140625 0.109375 C 2.554688 0.109375 2.066406 0.0234375 1.671875 -0.140625 C 1.285156 -0.316406 0.976562 -0.570312 0.75 -0.90625 C 0.53125 -1.25 0.414062 -1.632812 0.40625 -2.0625 Z M 0.40625 -2.0625 "
           id="path11" />
      </symbol>
      <symbol
         overflow="visible"
         id="glyph0-4">
        <path
           style="stroke:none;"
           d=""
           id="path14" />
      </symbol>
      <symbol
         overflow="visible"
         id="glyph0-5">
        <path
           style="stroke:none;"
           d="M 5.28125 -2.25 L 6.140625 -2.046875 C 5.953125 -1.335938 5.625 -0.800781 5.15625 -0.4375 C 4.695312 -0.0703125 4.132812 0.109375 3.46875 0.109375 C 2.78125 0.109375 2.21875 -0.03125 1.78125 -0.3125 C 1.34375 -0.59375 1.007812 -1 0.78125 -1.53125 C 0.5625 -2.070312 0.453125 -2.648438 0.453125 -3.265625 C 0.453125 -3.929688 0.578125 -4.515625 0.828125 -5.015625 C 1.085938 -5.515625 1.453125 -5.894531 1.921875 -6.15625 C 2.390625 -6.414062 2.910156 -6.546875 3.484375 -6.546875 C 4.128906 -6.546875 4.671875 -6.378906 5.109375 -6.046875 C 5.546875 -5.722656 5.847656 -5.265625 6.015625 -4.671875 L 5.1875 -4.46875 C 5.039062 -4.9375 4.820312 -5.273438 4.53125 -5.484375 C 4.25 -5.703125 3.894531 -5.8125 3.46875 -5.8125 C 2.96875 -5.8125 2.550781 -5.691406 2.21875 -5.453125 C 1.894531 -5.222656 1.664062 -4.90625 1.53125 -4.5 C 1.394531 -4.101562 1.328125 -3.691406 1.328125 -3.265625 C 1.328125 -2.722656 1.40625 -2.242188 1.5625 -1.828125 C 1.71875 -1.421875 1.960938 -1.117188 2.296875 -0.921875 C 2.640625 -0.722656 3.007812 -0.625 3.40625 -0.625 C 3.875 -0.625 4.273438 -0.757812 4.609375 -1.03125 C 4.941406 -1.300781 5.164062 -1.707031 5.28125 -2.25 Z M 5.28125 -2.25 "
           id="path17" />
      </symbol>
      <symbol
         overflow="visible"
         id="glyph0-6">
        <path
           style="stroke:none;"
           d="M 0.6875 0 L 0.6875 -6.4375 L 3.125 -6.4375 C 3.550781 -6.4375 3.875 -6.414062 4.09375 -6.375 C 4.414062 -6.320312 4.679688 -6.21875 4.890625 -6.0625 C 5.109375 -5.914062 5.28125 -5.707031 5.40625 -5.4375 C 5.539062 -5.175781 5.609375 -4.890625 5.609375 -4.578125 C 5.609375 -4.023438 5.429688 -3.554688 5.078125 -3.171875 C 4.734375 -2.796875 4.101562 -2.609375 3.1875 -2.609375 L 1.546875 -2.609375 L 1.546875 0 Z M 1.546875 -3.375 L 3.203125 -3.375 C 3.753906 -3.375 4.144531 -3.472656 4.375 -3.671875 C 4.601562 -3.878906 4.71875 -4.171875 4.71875 -4.546875 C 4.71875 -4.816406 4.648438 -5.046875 4.515625 -5.234375 C 4.378906 -5.421875 4.203125 -5.546875 3.984375 -5.609375 C 3.835938 -5.648438 3.570312 -5.671875 3.1875 -5.671875 L 1.546875 -5.671875 Z M 1.546875 -3.375 "
           id="path20" />
      </symbol>
      <symbol
         overflow="visible"
         id="glyph0-7">
        <path
           style="stroke:none;"
           d="M 3.703125 -2.515625 L 3.703125 -3.28125 L 6.421875 -3.28125 L 6.421875 -0.890625 C 6.003906 -0.554688 5.570312 -0.304688 5.125 -0.140625 C 4.6875 0.0234375 4.234375 0.109375 3.765625 0.109375 C 3.128906 0.109375 2.550781 -0.0234375 2.03125 -0.296875 C 1.519531 -0.566406 1.132812 -0.957031 0.875 -1.46875 C 0.613281 -1.976562 0.484375 -2.550781 0.484375 -3.1875 C 0.484375 -3.8125 0.613281 -4.394531 0.875 -4.9375 C 1.132812 -5.476562 1.507812 -5.878906 2 -6.140625 C 2.488281 -6.410156 3.054688 -6.546875 3.703125 -6.546875 C 4.160156 -6.546875 4.578125 -6.46875 4.953125 -6.3125 C 5.328125 -6.164062 5.617188 -5.957031 5.828125 -5.6875 C 6.046875 -5.414062 6.210938 -5.0625 6.328125 -4.625 L 5.5625 -4.421875 C 5.46875 -4.742188 5.347656 -5 5.203125 -5.1875 C 5.054688 -5.375 4.847656 -5.523438 4.578125 -5.640625 C 4.316406 -5.753906 4.023438 -5.8125 3.703125 -5.8125 C 3.316406 -5.8125 2.976562 -5.75 2.6875 -5.625 C 2.40625 -5.507812 2.175781 -5.351562 2 -5.15625 C 1.832031 -4.96875 1.695312 -4.757812 1.59375 -4.53125 C 1.4375 -4.132812 1.359375 -3.703125 1.359375 -3.234375 C 1.359375 -2.660156 1.457031 -2.179688 1.65625 -1.796875 C 1.851562 -1.410156 2.140625 -1.125 2.515625 -0.9375 C 2.890625 -0.75 3.289062 -0.65625 3.71875 -0.65625 C 4.082031 -0.65625 4.441406 -0.722656 4.796875 -0.859375 C 5.148438 -1.003906 5.414062 -1.160156 5.59375 -1.328125 L 5.59375 -2.515625 Z M 3.703125 -2.515625 "
           id="path23" />
      </symbol>
      <symbol
         overflow="visible"
         id="glyph0-8">
        <path
           style="stroke:none;"
           d="M -0.015625 0 L 2.453125 -6.4375 L 3.375 -6.4375 L 6 0 L 5.03125 0 L 4.28125 -1.953125 L 1.59375 -1.953125 L 0.890625 0 Z M 1.84375 -2.640625 L 4.015625 -2.640625 L 3.359375 -4.421875 C 3.148438 -4.960938 2.992188 -5.40625 2.890625 -5.75 C 2.804688 -5.34375 2.691406 -4.9375 2.546875 -4.53125 Z M 1.84375 -2.640625 "
           id="path26" />
      </symbol>
      <symbol
         overflow="visible"
         id="glyph0-9">
        <path
           style="stroke:none;"
           d="M 0.84375 0 L 0.84375 -6.4375 L 1.6875 -6.4375 L 1.6875 0 Z M 0.84375 0 "
           id="path29" />
      </symbol>
      <symbol
         overflow="visible"
         id="glyph0-10">
        <path
           style="stroke:none;"
           d="M 0 0.109375 L 1.859375 -6.546875 L 2.5 -6.546875 L 0.640625 0.109375 Z M 0 0.109375 "
           id="path32" />
      </symbol>
      <symbol
         overflow="visible"
         id="glyph0-11">
        <path
           style="stroke:none;"
           d="M 0.671875 0 L 0.671875 -6.4375 L 1.953125 -6.4375 L 3.46875 -1.875 C 3.613281 -1.445312 3.71875 -1.128906 3.78125 -0.921875 C 3.851562 -1.160156 3.96875 -1.503906 4.125 -1.953125 L 5.65625 -6.4375 L 6.796875 -6.4375 L 6.796875 0 L 5.984375 0 L 5.984375 -5.375 L 4.109375 0 L 3.34375 0 L 1.484375 -5.46875 L 1.484375 0 Z M 0.671875 0 "
           id="path35" />
      </symbol>
      <symbol
         overflow="visible"
         id="glyph0-12">
        <path
           style="stroke:none;"
           d="M 0.65625 0 L 0.65625 -6.4375 L 1.515625 -6.4375 L 1.515625 -0.765625 L 4.671875 -0.765625 L 4.671875 0 Z M 0.65625 0 "
           id="path38" />
      </symbol>
      <symbol
         overflow="visible"
         id="glyph0-13">
        <path
           style="stroke:none;"
           d="M 3.625 -1.703125 L 4.40625 -1.609375 C 4.320312 -1.066406 4.101562 -0.644531 3.75 -0.34375 C 3.40625 -0.0390625 2.976562 0.109375 2.46875 0.109375 C 1.832031 0.109375 1.316406 -0.0976562 0.921875 -0.515625 C 0.535156 -0.929688 0.34375 -1.53125 0.34375 -2.3125 C 0.34375 -2.8125 0.425781 -3.25 0.59375 -3.625 C 0.757812 -4.007812 1.015625 -4.296875 1.359375 -4.484375 C 1.703125 -4.671875 2.070312 -4.765625 2.46875 -4.765625 C 2.976562 -4.765625 3.394531 -4.632812 3.71875 -4.375 C 4.039062 -4.125 4.242188 -3.765625 4.328125 -3.296875 L 3.5625 -3.171875 C 3.488281 -3.484375 3.359375 -3.71875 3.171875 -3.875 C 2.992188 -4.03125 2.769531 -4.109375 2.5 -4.109375 C 2.101562 -4.109375 1.78125 -3.96875 1.53125 -3.6875 C 1.28125 -3.40625 1.15625 -2.953125 1.15625 -2.328125 C 1.15625 -1.703125 1.273438 -1.25 1.515625 -0.96875 C 1.753906 -0.6875 2.070312 -0.546875 2.46875 -0.546875 C 2.769531 -0.546875 3.023438 -0.640625 3.234375 -0.828125 C 3.441406 -1.015625 3.570312 -1.304688 3.625 -1.703125 Z M 3.625 -1.703125 "
           id="path41" />
      </symbol>
      <symbol
         overflow="visible"
         id="glyph0-14">
        <path
           style="stroke:none;"
           d="M 3.78125 -1.5 L 4.59375 -1.40625 C 4.46875 -0.925781 4.226562 -0.550781 3.875 -0.28125 C 3.53125 -0.0195312 3.085938 0.109375 2.546875 0.109375 C 1.867188 0.109375 1.328125 -0.0976562 0.921875 -0.515625 C 0.523438 -0.941406 0.328125 -1.535156 0.328125 -2.296875 C 0.328125 -3.078125 0.53125 -3.679688 0.9375 -4.109375 C 1.34375 -4.546875 1.863281 -4.765625 2.5 -4.765625 C 3.125 -4.765625 3.632812 -4.550781 4.03125 -4.125 C 4.425781 -3.695312 4.625 -3.101562 4.625 -2.34375 C 4.625 -2.289062 4.625 -2.21875 4.625 -2.125 L 1.140625 -2.125 C 1.171875 -1.613281 1.316406 -1.222656 1.578125 -0.953125 C 1.835938 -0.679688 2.160156 -0.546875 2.546875 -0.546875 C 2.835938 -0.546875 3.085938 -0.617188 3.296875 -0.765625 C 3.503906 -0.921875 3.664062 -1.164062 3.78125 -1.5 Z M 1.1875 -2.78125 L 3.796875 -2.78125 C 3.753906 -3.164062 3.648438 -3.457031 3.484375 -3.65625 C 3.234375 -3.957031 2.910156 -4.109375 2.515625 -4.109375 C 2.148438 -4.109375 1.84375 -3.988281 1.59375 -3.75 C 1.351562 -3.507812 1.21875 -3.1875 1.1875 -2.78125 Z M 1.1875 -2.78125 "
           id="path44" />
      </symbol>
      <symbol
         overflow="visible"
         id="glyph0-15">
        <path
           style="stroke:none;"
           d="M 0.578125 0 L 0.578125 -6.4375 L 1.359375 -6.4375 L 1.359375 0 Z M 0.578125 0 "
           id="path47" />
      </symbol>
      <symbol
         overflow="visible"
         id="glyph0-16">
        <path
           style="stroke:none;"
           d="M 0.578125 0 L 0.578125 -4.65625 L 1.296875 -4.65625 L 1.296875 -3.953125 C 1.472656 -4.285156 1.640625 -4.503906 1.796875 -4.609375 C 1.953125 -4.710938 2.117188 -4.765625 2.296875 -4.765625 C 2.566406 -4.765625 2.835938 -4.679688 3.109375 -4.515625 L 2.84375 -3.78125 C 2.644531 -3.894531 2.453125 -3.953125 2.265625 -3.953125 C 2.085938 -3.953125 1.929688 -3.898438 1.796875 -3.796875 C 1.660156 -3.691406 1.5625 -3.546875 1.5 -3.359375 C 1.414062 -3.078125 1.375 -2.769531 1.375 -2.4375 L 1.375 0 Z M 0.578125 0 "
           id="path50" />
      </symbol>
      <symbol
         overflow="visible"
         id="glyph0-17">
        <path
           style="stroke:none;"
           d="M 3.625 -0.578125 C 3.332031 -0.328125 3.050781 -0.148438 2.78125 -0.046875 C 2.507812 0.0546875 2.222656 0.109375 1.921875 0.109375 C 1.410156 0.109375 1.015625 -0.015625 0.734375 -0.265625 C 0.460938 -0.515625 0.328125 -0.835938 0.328125 -1.234375 C 0.328125 -1.460938 0.378906 -1.671875 0.484375 -1.859375 C 0.585938 -2.046875 0.722656 -2.195312 0.890625 -2.3125 C 1.054688 -2.425781 1.242188 -2.507812 1.453125 -2.5625 C 1.609375 -2.601562 1.84375 -2.644531 2.15625 -2.6875 C 2.789062 -2.757812 3.257812 -2.847656 3.5625 -2.953125 C 3.570312 -3.066406 3.578125 -3.132812 3.578125 -3.15625 C 3.578125 -3.476562 3.5 -3.707031 3.34375 -3.84375 C 3.144531 -4.019531 2.847656 -4.109375 2.453125 -4.109375 C 2.078125 -4.109375 1.800781 -4.039062 1.625 -3.90625 C 1.445312 -3.78125 1.316406 -3.550781 1.234375 -3.21875 L 0.453125 -3.328125 C 0.523438 -3.660156 0.640625 -3.925781 0.796875 -4.125 C 0.960938 -4.332031 1.195312 -4.488281 1.5 -4.59375 C 1.8125 -4.707031 2.164062 -4.765625 2.5625 -4.765625 C 2.957031 -4.765625 3.28125 -4.71875 3.53125 -4.625 C 3.78125 -4.53125 3.960938 -4.410156 4.078125 -4.265625 C 4.191406 -4.128906 4.273438 -3.953125 4.328125 -3.734375 C 4.347656 -3.597656 4.359375 -3.351562 4.359375 -3 L 4.359375 -1.953125 C 4.359375 -1.210938 4.375 -0.742188 4.40625 -0.546875 C 4.445312 -0.359375 4.515625 -0.175781 4.609375 0 L 3.796875 0 C 3.710938 -0.164062 3.65625 -0.359375 3.625 -0.578125 Z M 3.5625 -2.34375 C 3.28125 -2.21875 2.851562 -2.117188 2.28125 -2.046875 C 1.957031 -1.992188 1.726562 -1.9375 1.59375 -1.875 C 1.457031 -1.820312 1.351562 -1.738281 1.28125 -1.625 C 1.207031 -1.507812 1.171875 -1.382812 1.171875 -1.25 C 1.171875 -1.039062 1.25 -0.863281 1.40625 -0.71875 C 1.5625 -0.582031 1.796875 -0.515625 2.109375 -0.515625 C 2.410156 -0.515625 2.675781 -0.578125 2.90625 -0.703125 C 3.144531 -0.835938 3.320312 -1.023438 3.4375 -1.265625 C 3.519531 -1.441406 3.5625 -1.703125 3.5625 -2.046875 Z M 3.5625 -2.34375 "
           id="path53" />
      </symbol>
      <symbol
         overflow="visible"
         id="glyph0-18">
        <path
           style="stroke:none;"
           d="M 2.3125 -0.703125 L 2.4375 -0.015625 C 2.207031 0.0351562 2.003906 0.0625 1.828125 0.0625 C 1.546875 0.0625 1.328125 0.0195312 1.171875 -0.0625 C 1.015625 -0.15625 0.898438 -0.273438 0.828125 -0.421875 C 0.765625 -0.578125 0.734375 -0.890625 0.734375 -1.359375 L 0.734375 -4.046875 L 0.15625 -4.046875 L 0.15625 -4.65625 L 0.734375 -4.65625 L 0.734375 -5.8125 L 1.515625 -6.28125 L 1.515625 -4.65625 L 2.3125 -4.65625 L 2.3125 -4.046875 L 1.515625 -4.046875 L 1.515625 -1.328125 C 1.515625 -1.097656 1.53125 -0.953125 1.5625 -0.890625 C 1.59375 -0.828125 1.640625 -0.773438 1.703125 -0.734375 C 1.765625 -0.691406 1.851562 -0.671875 1.96875 -0.671875 C 2.050781 -0.671875 2.164062 -0.679688 2.3125 -0.703125 Z M 2.3125 -0.703125 "
           id="path56" />
      </symbol>
      <symbol
         overflow="visible"
         id="glyph0-19">
        <path
           style="stroke:none;"
           d="M 0.296875 -2.328125 C 0.296875 -3.191406 0.535156 -3.832031 1.015625 -4.25 C 1.421875 -4.59375 1.910156 -4.765625 2.484375 -4.765625 C 3.117188 -4.765625 3.640625 -4.550781 4.046875 -4.125 C 4.453125 -3.707031 4.65625 -3.128906 4.65625 -2.390625 C 4.65625 -1.796875 4.566406 -1.328125 4.390625 -0.984375 C 4.210938 -0.640625 3.953125 -0.367188 3.609375 -0.171875 C 3.265625 0.015625 2.890625 0.109375 2.484375 0.109375 C 1.828125 0.109375 1.296875 -0.0976562 0.890625 -0.515625 C 0.492188 -0.941406 0.296875 -1.546875 0.296875 -2.328125 Z M 1.109375 -2.328125 C 1.109375 -1.734375 1.238281 -1.285156 1.5 -0.984375 C 1.757812 -0.691406 2.085938 -0.546875 2.484375 -0.546875 C 2.878906 -0.546875 3.207031 -0.691406 3.46875 -0.984375 C 3.726562 -1.285156 3.859375 -1.742188 3.859375 -2.359375 C 3.859375 -2.929688 3.722656 -3.363281 3.453125 -3.65625 C 3.191406 -3.957031 2.867188 -4.109375 2.484375 -4.109375 C 2.085938 -4.109375 1.757812 -3.957031 1.5 -3.65625 C 1.238281 -3.363281 1.109375 -2.921875 1.109375 -2.328125 Z M 1.109375 -2.328125 "
           id="path59" />
      </symbol>
      <symbol
         overflow="visible"
         id="glyph0-20">
        <path
           style="stroke:none;"
           d="M 0.703125 0 L 0.703125 -6.4375 L 3.5625 -6.4375 C 4.132812 -6.4375 4.566406 -6.375 4.859375 -6.25 C 5.160156 -6.132812 5.398438 -5.929688 5.578125 -5.640625 C 5.753906 -5.347656 5.84375 -5.023438 5.84375 -4.671875 C 5.84375 -4.210938 5.695312 -3.828125 5.40625 -3.515625 C 5.113281 -3.203125 4.65625 -3.003906 4.03125 -2.921875 C 4.257812 -2.816406 4.429688 -2.710938 4.546875 -2.609375 C 4.796875 -2.378906 5.03125 -2.09375 5.25 -1.75 L 6.375 0 L 5.296875 0 L 4.453125 -1.34375 C 4.203125 -1.726562 3.992188 -2.019531 3.828125 -2.21875 C 3.671875 -2.425781 3.53125 -2.570312 3.40625 -2.65625 C 3.28125 -2.738281 3.148438 -2.796875 3.015625 -2.828125 C 2.921875 -2.847656 2.765625 -2.859375 2.546875 -2.859375 L 1.5625 -2.859375 L 1.5625 0 Z M 1.5625 -3.59375 L 3.390625 -3.59375 C 3.773438 -3.59375 4.078125 -3.628906 4.296875 -3.703125 C 4.515625 -3.785156 4.679688 -3.914062 4.796875 -4.09375 C 4.910156 -4.269531 4.96875 -4.460938 4.96875 -4.671875 C 4.96875 -4.972656 4.859375 -5.222656 4.640625 -5.421875 C 4.421875 -5.617188 4.070312 -5.71875 3.59375 -5.71875 L 1.5625 -5.71875 Z M 1.5625 -3.59375 "
           id="path62" />
      </symbol>
    </g>
    <clipPath
       id="clip1">
      <path
         d="M 0 90 L 294 90 L 294 136.902344 L 0 136.902344 Z M 0 90 "
         id="path67" />
    </clipPath>
  </defs>
  <g
     id="surface1">
    <path
       style="fill:#fff0ca;fill-opacity:1;fill-rule:nonzero;stroke:none"
       d="M 1.121094,90.894531 H 292.87891 V 135.77734 H 1.121094 Z m 0,0"
       id="path72" />
    <g
       clip-path="url(#clip1)"
       clip-rule="nonzero"
       id="g76">
      <path
         style="fill:none;stroke:#d4b554;stroke-width:1;stroke-linecap:butt;stroke-linejoin:miter;stroke-miterlimit:4;stroke-opacity:1"
         d="M 0.998605,121.00189 H 391.00146 v 59.99642 H 0.998605 Z m 0,0"
         transform="matrix(0.748091,0,0,0.748091,0.374046,0.374046)"
         id="path74" />
    </g>
    <g
       style="fill:#000000;fill-opacity:1"
       id="g84">
      <use
         xlink:href="#glyph0-1"
         x="137.39168"
         y="115.95418"
         id="use78"
         width="100%"
         height="100%" />
      <use
         xlink:href="#glyph0-2"
         x="143.37933"
         y="115.95418"
         id="use80"
         width="100%"
         height="100%" />
      <use
         xlink:href="#glyph0-3"
         x="149.8623"
         y="115.95418"
         id="use82"
         width="100%"
         height="100%" />
    </g>
    <g
       style="fill:#000000;fill-opacity:1"
       id="g88">
      <use
         xlink:href="#glyph0-4"
         x="155.8485"
         y="115.95418"
         id="use86"
         width="100%"
         height="100%" />
    </g>
    <path
       style="fill:#d9e6fa;fill-opacity:1;fill-rule:nonzero;stroke:#6b8cbd;stroke-width:1;stroke-linecap:butt;stroke-linejoin:miter;stroke-miterlimit:4;stroke-opacity:1"
       d="M 0.998605,0.998605 H 90.998459 V 61.000249 H 0.998605 Z m 0,0"
       transform="matrix(0.748091,0,0,0.748091,0.374046,0.374046)"
       id="path90" />
    <g
       style="fill:#000000;fill-opacity:1"
       id="g98">
      <use
         xlink:href="#glyph0-5"
         x="24.932487"
         y="26.183203"
         id="use92"
         width="100%"
         height="100%" />
      <use
         xlink:href="#glyph0-6"
         x="31.415459"
         y="26.183203"
         id="use94"
         width="100%"
         height="100%" />
      <use
         xlink:href="#glyph0-2"
         x="37.403114"
         y="26.183203"
         id="use96"
         width="100%"
         height="100%" />
    </g>
    <path
       style="fill:#f8ccca;fill-opacity:1;fill-rule:nonzero;stroke:#b8514f;stroke-width:1;stroke-linecap:butt;stroke-linejoin:miter;stroke-miterlimit:4;stroke-opacity:1"
       d="m 100.99786,0.998605 h 89.99986 v 60.001644 h -89.99986 z m 0,0"
       transform="matrix(0.748091,0,0,0.748091,0.374046,0.374046)"
       id="path100" />
    <g
       style="fill:#000000;fill-opacity:1"
       id="g108">
      <use
         xlink:href="#glyph0-7"
         x="99.484482"
         y="26.183203"
         id="use102"
         width="100%"
         height="100%" />
      <use
         xlink:href="#glyph0-6"
         x="106.46716"
         y="26.183203"
         id="use104"
         width="100%"
         height="100%" />
      <use
         xlink:href="#glyph0-2"
         x="112.45481"
         y="26.183203"
         id="use106"
         width="100%"
         height="100%" />
    </g>
    <path
       style="fill:#d4e6d4;fill-opacity:1;fill-rule:nonzero;stroke:#7fb363;stroke-width:1;stroke-linecap:butt;stroke-linejoin:miter;stroke-miterlimit:4;stroke-opacity:1"
       d="m 201.00234,0.998605 h 89.99986 v 60.001644 h -89.99986 z m 0,0"
       transform="matrix(0.748091,0,0,0.748091,0.374046,0.374046)"
       id="path110" />
    <g
       style="fill:#000000;fill-opacity:1"
       id="g122">
      <use
         xlink:href="#glyph0-8"
         x="172.30652"
         y="20.946562"
         id="use112"
         width="100%"
         height="100%" />
      <use
         xlink:href="#glyph0-9"
         x="178.29417"
         y="20.946562"
         id="use114"
         width="100%"
         height="100%" />
      <use
         xlink:href="#glyph0-10"
         x="180.7883"
         y="20.946562"
         id="use116"
         width="100%"
         height="100%" />
      <use
         xlink:href="#glyph0-11"
         x="183.28242"
         y="20.946562"
         id="use118"
         width="100%"
         height="100%" />
      <use
         xlink:href="#glyph0-12"
         x="190.76041"
         y="20.946562"
         id="use120"
         width="100%"
         height="100%" />
    </g>
    <g
       style="fill:#000000;fill-opacity:1"
       id="g126">
      <use
         xlink:href="#glyph0-4"
         x="195.74281"
         y="20.946562"
         id="use124"
         width="100%"
         height="100%" />
    </g>
    <g
       style="fill:#000000;fill-opacity:1"
       id="g150">
      <use
         xlink:href="#glyph0-8"
         x="161.31892"
         y="32.167934"
         id="use128"
         width="100%"
         height="100%" />
      <use
         xlink:href="#glyph0-13"
         x="167.30658"
         y="32.167934"
         id="use130"
         width="100%"
         height="100%" />
      <use
         xlink:href="#glyph0-13"
         x="171.79512"
         y="32.167934"
         id="use132"
         width="100%"
         height="100%" />
      <use
         xlink:href="#glyph0-14"
         x="176.28368"
         y="32.167934"
         id="use134"
         width="100%"
         height="100%" />
      <use
         xlink:href="#glyph0-15"
         x="181.27631"
         y="32.167934"
         id="use136"
         width="100%"
         height="100%" />
      <use
         xlink:href="#glyph0-14"
         x="183.27074"
         y="32.167934"
         id="use138"
         width="100%"
         height="100%" />
      <use
         xlink:href="#glyph0-16"
         x="188.26337"
         y="32.167934"
         id="use140"
         width="100%"
         height="100%" />
      <use
         xlink:href="#glyph0-17"
         x="191.25281"
         y="32.167934"
         id="use142"
         width="100%"
         height="100%" />
      <use
         xlink:href="#glyph0-18"
         x="196.24544"
         y="32.167934"
         id="use144"
         width="100%"
         height="100%" />
      <use
         xlink:href="#glyph0-19"
         x="198.73956"
         y="32.167934"
         id="use146"
         width="100%"
         height="100%" />
      <use
         xlink:href="#glyph0-16"
         x="203.73221"
         y="32.167934"
         id="use148"
         width="100%"
         height="100%" />
    </g>
    <path
       style="fill:#ffe6ca;fill-opacity:1;fill-rule:nonzero;stroke:#d79900;stroke-width:1;stroke-linecap:butt;stroke-linejoin:miter;stroke-miterlimit:4;stroke-opacity:1"
       d="m 301.0016,0.998605 h 89.99986 V 61.000249 H 301.0016 Z m 0,0"
       transform="matrix(0.748091,0,0,0.748091,0.374046,0.374046)"
       id="path152" />
    <g
       style="fill:#000000;fill-opacity:1"
       id="g160">
      <use
         xlink:href="#glyph0-20"
         x="248.85732"
         y="26.183203"
         id="use154"
         width="100%"
         height="100%" />
      <use
         xlink:href="#glyph0-8"
         x="255.34029"
         y="26.183203"
         id="use156"
         width="100%"
         height="100%" />
      <use
         xlink:href="#glyph0-11"
         x="261.32794"
         y="26.183203"
         id="use158"
         width="100%"
         height="100%" />
    </g>
    <path
       style="fill:#ffffff;fill-opacity:1;fill-rule:nonzero;stroke:#000000;stroke-width:1;stroke-linecap:butt;stroke-linejoin:miter;stroke-miterlimit:10;stroke-opacity:1"
       d="m 151.05232,101.4887 10.49546,-0.0104 -15.46644,19.02237 -15.5291,-18.98059 10.49545,-0.0105 -0.0157,-21.001357 -10.50068,0.01044 15.46644,-19.017143 15.53432,18.980591 -10.50068,0.01044 z m 0,0"
       transform="matrix(0.748091,0,0,0.748091,0.374046,0.374046)"
       id="path162" />
    <path
       style="fill:#ffffff;fill-opacity:1;fill-rule:nonzero;stroke:#000000;stroke-width:1;stroke-linecap:butt;stroke-linejoin:miter;stroke-miterlimit:10;stroke-opacity:1"
       d="m 50.901634,101.50958 10.500679,0.0313 -15.549986,18.95971 -15.450776,-19.03803 10.500679,0.0261 0.04699,-20.996141 -10.500679,-0.03133 15.549986,-18.959705 15.450776,19.038029 -10.500679,-0.03133 z m 0,0"
       transform="matrix(0.748091,0,0,0.748091,0.374046,0.374046)"
       id="path164" />
    <path
       style="fill:#ffffff;fill-opacity:1;fill-rule:nonzero;stroke:#000000;stroke-width:1;stroke-linecap:butt;stroke-linejoin:miter;stroke-miterlimit:10;stroke-opacity:1"
       d="m 251.20823,101.89076 10.50068,-0.0522 -15.39857,19.07981 -15.6022,-18.91794 10.50068,-0.0522 -0.10965,-21.41909 -10.50068,0.05222 15.40378,-19.079802 15.59698,18.917932 -10.50068,0.05222 z m 0,0"
       transform="matrix(0.748091,0,0,0.748091,0.374046,0.374046)"
       id="path166" />
    <path
       style="fill:#ffffff;fill-opacity:1;fill-rule:nonzero;stroke:#000000;stroke-width:1;stroke-linecap:butt;stroke-linejoin:miter;stroke-miterlimit:10;stroke-opacity:1"
       d="m 351.09783,101.4887 10.50068,-0.0261 -15.45078,19.03803 -15.54998,-18.95971 10.50068,-0.0313 -0.047,-21.001357 -10.50068,0.03133 15.45078,-19.038029 15.54998,18.959705 -10.50068,0.03133 z m 0,0"
       transform="matrix(0.748091,0,0,0.748091,0.374046,0.374046)"
       id="path168" />
  </g>
</svg>
